{
	"id": "c7ae3548-91cb-436e-8368-a1c5207acd19",
	"name": "Beanstalk",
	"values": [
		{
			"key": "baseUrl",
			"value": "http://production.eba-5npr862i.us-east-1.elasticbeanstalk.com",
			"enabled": true
		}
	],
	"_postman_variable_scope": "environment",
	"_postman_exported_at": "2020-06-14T14:53:40.420Z",
	"_postman_exported_using": "Postman/7.26.0"
}